[
 {
  "latitude": 25.072847,
  "longitude": 121.524841,
  "marker": "../images/a2.svg",
  "infoWindowImage": "../images/ex2.jpg",
  "title": "xxxxx",
  "artist": "王德瑜2",
  "description": "橋墩以往的目的是為了過河，而現今都市環境地狹人稠，在交通運輸高架後222",
  "gMap": "#",
  "detail": "#",
  "typeContent": "視覺裝置",
  "locationContent": "maji square",
  "timeContent": "10/6 2130-2300",
  "colorTag": "purple"
 },
 {
  "latitude": 25.069965,
  "longitude": 121.520923,
  "marker": "../images/b1.svg",
  "infoWindowImage": "../images/ex1.jpg",
  "title": "xxxxx2",
  "artist": "何孟娟2",
  "description": "路線帶你進入赤峰街風情2",
  "gMap": "#",
  "detail": "#",
  "typeContent": "視覺裝置",
  "locationContent": "maji square",
  "timeContent": "10/6 1800-2000",
  "colorTag": "red"
 },
 {
  "latitude": 25.072847,
  "longitude": 121.524841,
  "marker": "../images/c1.svg",
  "infoWindowImage": "../images/ex1.jpg",
  "title": "xxxxxx8",
  "artist": "王德瑜444",
  "description": "橋墩以往的目的是為了過河，而現今都市環境地狹人稠，在交通運輸高架後222",
  "gMap": "#",
  "detail": "#",
  "typeContent": "表演",
  "locationContent": "maji square",
  "timeContent": "10/6 2130-2300",
  "colorTag": "purple"
 },
 {
  "latitude": 25.069965,
  "longitude": 121.520923,
  "marker": "../images/a1.svg",
  "infoWindowImage": "../images/ex4.jpg",
  "title": "xxxxxxx8",
  "artist": "何孟娟888",
  "description": "路線帶你進入赤峰街風情2",
  "gMap": "#",
  "detail": "#",
  "typeContent": "表演",
  "locationContent": "maji square",
  "timeContent": "10/6 1800-2000",
  "colorTag": "red"
 },
 
]