[
 {
  "latitude": 68.072847,
  "longitude": 170.524841,
  "marker": "../images/d1.svg",
  "infoWindowImage": "../images/ex2.jpg",
  "title": "南部8",
  "artist": "王德瑜444",
  "description": "橋墩以往的目的是為了過河，而現今都市環境地狹人稠，在交通運輸高架後222",
  "gMap": "#",
  "detail": "#",
  "typeContent": "裝置藝術",
  "locationContent": "南部3",
  "timeContent": "10/6 2130-2300",
  "colorTag": "purple"
 },
 {
  "latitude": 76.069965,
  "longitude": 180.520923,
  "marker": "../images/c1.svg",
  "infoWindowImage": "../images/ex3.jpg",
  "title": "南部・約克88888",
  "artist": "何888",
  "description": "路線帶你進入赤峰街風情2",
  "gMap": "#",
  "detail": "#",
  "typeContent": "裝置藝術",
  "locationContent": "南部4",
  "timeContent": "10/6 1800-2000",
  "colorTag": "red"
 }
]